{
    "paths": {
        "styles": "styles",
        "scripts": "scripts",
        "images": "images"
    },

    "header": {
        "lang": "en",
        "title": "Archaeopteryx",
        "description": "Scaffolding for Sass Workflow",
        "author": "Pedro Pisandelli"
    },

    "styles": {
        "main_style": "main.css"
    }
}
